{
    "themes": [
        {
            "id": "001",
            "name": "Classic",
            "folder_name": "ClassicTheme",
            "path": "Themes/ClassicTheme",
            "light": "classic_light.json",
            "dark": "classic_dark.json",
            "thumbnail": "Thumbnails/classic_thumbnail.png",
            "downloaded_folder_name": "default_theme-main",
            "download_url": "https://gitlab.com/bunthoeunappdev/default_theme/-/archive/main/default_theme-main.zip"
        },
        {
            "id": "002",
            "name": "Premier",
            "folder_name": "PremierTheme",
            "path": "Themes/PremierTheme",
            "light": "premier_light.json",
            "dark": "premier_dark.json",
            "thumbnail": "Thumbnails/premier_thumbnail.png",
            "downloaded_folder_name": "premier_theme-main",
            "download_url": "https://gitlab.com/bunthoeunappdev/premier_theme/-/archive/main/premier_theme-main.zip"
        },
        {
            "id": "003",
            "name": "Preferred",
            "folder_name": "PreferredTheme",
            "path": "Themes/PreferredTheme",
            "light": "preferred_light.json",
            "dark": "preferred_dark.json",
            "thumbnail": "Thumbnails/preferred_thumbnail.png",
            "downloaded_folder_name": "preferred_theme-main",
            "download_url": "https://gitlab.com/bunthoeunappdev/preferred_theme/-/archive/main/preferred_theme-main.zip"
        }
    ]
}
